{
    "1100": {
        "kgf": -1.768181818,
        "lbf": -3.89,
        "newtons": -17.3399402254897,
        "rpm": 2869.0
    },
    "1110": {
        "kgf": -1.640909091,
        "lbf": -3.61,
        "newtons": -16.09182113725515,
        "rpm": 2987.0
    },
    "1120": {
        "kgf": -1.577272727,
        "lbf": -3.47,
        "newtons": -15.467761588234548,
        "rpm": 3110.0
    },
    "1130": {
        "kgf": -1.527272727,
        "lbf": -3.36,
        "newtons": -14.97742908823455,
        "rpm": 3061.0
    },
    "1140": {
        "kgf": -1.440909091,
        "lbf": -3.17,
        "newtons": -14.130491137255149,
        "rpm": 3057.0
    },
    "1150": {
        "kgf": -1.4,
        "lbf": -3.08,
        "newtons": -13.729309999999998,
        "rpm": 3184.0
    },
    "1160": {
        "kgf": -1.322727273,
        "lbf": -2.91,
        "newtons": -12.971523411765448,
        "rpm": 3810.0
    },
    "1170": {
        "kgf": -1.259090909,
        "lbf": -2.77,
        "newtons": -12.34746386274485,
        "rpm": 3841.0
    },
    "1180": {
        "kgf": -1.209090909,
        "lbf": -2.66,
        "newtons": -11.857131362744848,
        "rpm": 3771.0
    },
    "1190": {
        "kgf": -1.163636364,
        "lbf": -2.56,
        "newtons": -11.4113745490206,
        "rpm": 3690.0
    },
    "1200": {
        "kgf": -1.104545455,
        "lbf": -2.43,
        "newtons": -10.831890686275749,
        "rpm": 3631.0
    },
    "1210": {
        "kgf": -1.040909091,
        "lbf": -2.29,
        "newtons": -10.20783113725515,
        "rpm": 3571.0
    },
    "1220": {
        "kgf": -0.990909091,
        "lbf": -2.18,
        "newtons": -9.717498637255149,
        "rpm": 3497.0
    },
    "1230": {
        "kgf": -0.927272727,
        "lbf": -2.04,
        "newtons": -9.093439088234549,
        "rpm": 3411.0
    },
    "1240": {
        "kgf": -0.854545455,
        "lbf": -1.88,
        "newtons": -8.38022818627575,
        "rpm": 3321.0
    },
    "1250": {
        "kgf": -0.790909091,
        "lbf": -1.74,
        "newtons": -7.756168637255149,
        "rpm": 3241.0
    },
    "1260": {
        "kgf": -0.754545455,
        "lbf": -1.66,
        "newtons": -7.39956318627575,
        "rpm": 3141.0
    },
    "1270": {
        "kgf": -0.704545455,
        "lbf": -1.55,
        "newtons": -6.909230686275749,
        "rpm": 3071.0
    },
    "1280": {
        "kgf": -0.668181818,
        "lbf": -1.47,
        "newtons": -6.5526252254897,
        "rpm": 2960.0
    },
    "1290": {
        "kgf": -0.622727273,
        "lbf": -1.37,
        "newtons": -6.10686841176545,
        "rpm": 2871.0
    },
    "1300": {
        "kgf": -0.581818182,
        "lbf": -1.28,
        "newtons": -5.7056872745103,
        "rpm": 2771.0
    },
    "1310": {
        "kgf": -0.531818182,
        "lbf": -1.17,
        "newtons": -5.215354774510299,
        "rpm": 2653.0
    },
    "1320": {
        "kgf": -0.472727273,
        "lbf": -1.04,
        "newtons": -4.6358709117654495,
        "rpm": 2531.0
    },
    "1330": {
        "kgf": -0.427272727,
        "lbf": -0.94,
        "newtons": -4.19011408823455,
        "rpm": 2430.0
    },
    "1340": {
        "kgf": -0.4,
        "lbf": -0.88,
        "newtons": -3.92266,
        "rpm": 2311.0
    },
    "1350": {
        "kgf": -0.368181818,
        "lbf": -0.81,
        "newtons": -3.6106302254897,
        "rpm": 2201.0
    },
    "1360": {
        "kgf": -0.327272727,
        "lbf": -0.72,
        "newtons": -3.2094490882345497,
        "rpm": 2090.0
    },
    "1370": {
        "kgf": -0.272727273,
        "lbf": -0.6,
        "newtons": -2.6745409117654497,
        "rpm": 1961.0
    },
    "1380": {
        "kgf": -0.231818182,
        "lbf": -0.51,
        "newtons": -2.2733597745103,
        "rpm": 1831.0
    },
    "1390": {
        "kgf": -0.2,
        "lbf": -0.44,
        "newtons": -1.96133,
        "rpm": 1711.0
    },
    "1400": {
        "kgf": -0.168181818,
        "lbf": -0.37,
        "newtons": -1.6493002254897,
        "rpm": 1586.0
    },
    "1410": {
        "kgf": -0.140909091,
        "lbf": -0.31,
        "newtons": -1.3818461372551498,
        "rpm": 1440.0
    },
    "1420": {
        "kgf": -0.104545455,
        "lbf": -0.23,
        "newtons": -1.02524068627575,
        "rpm": 1278.0
    },
    "1430": {
        "kgf": -0.072727273,
        "lbf": -0.16,
        "newtons": -0.7132109117654499,
        "rpm": 1113.0
    },
    "1440": {
        "kgf": -0.05,
        "lbf": -0.11,
        "newtons": -0.4903325,
        "rpm": 933.0
    },
    "1450": {
        "kgf": -0.031818182,
        "lbf": -0.07,
        "newtons": -0.3120297745103,
        "rpm": 644.0
    },
    "1460": {
        "kgf": -0.013636364,
        "lbf": -0.03,
        "newtons": -0.13372704902059998,
        "rpm": 383.0
    },
    "1470": {
        "kgf": -0.009090909,
        "lbf": -0.02,
        "newtons": -0.08915136274484999,
        "rpm": 178.0
    },
    "1480": {
        "kgf": 0.0,
        "lbf": 0.0,
        "newtons": 0.0,
        "rpm": 0.0
    },
    "1490": {
        "kgf": 0.0,
        "lbf": 0.0,
        "newtons": 0.0,
        "rpm": 0.0
    },
    "1500": {
        "kgf": 0.0,
        "lbf": 0.0,
        "newtons": 0.0,
        "rpm": 0.0
    },
    "1510": {
        "kgf": 0.0,
        "lbf": 0.0,
        "newtons": 0.0,
        "rpm": 0.0
    },
    "1520": {
        "kgf": 0.0,
        "lbf": 0.0,
        "newtons": 0.0,
        "rpm": 0.0
    },
    "1530": {
        "kgf": 0.009090909,
        "lbf": 0.02,
        "newtons": 0.08915136274484999,
        "rpm": 120.0
    },
    "1540": {
        "kgf": 0.036363636,
        "lbf": 0.08,
        "newtons": 0.35660545097939994,
        "rpm": 326.0
    },
    "1550": {
        "kgf": 0.063636364,
        "lbf": 0.14,
        "newtons": 0.6240595490206,
        "rpm": 565.0
    },
    "1560": {
        "kgf": 0.104545455,
        "lbf": 0.23,
        "newtons": 1.02524068627575,
        "rpm": 822.0
    },
    "1570": {
        "kgf": 0.145454545,
        "lbf": 0.32,
        "newtons": 1.42642181372425,
        "rpm": 1034.0
    },
    "1580": {
        "kgf": 0.195454545,
        "lbf": 0.43,
        "newtons": 1.91675431372425,
        "rpm": 1221.0
    },
    "1590": {
        "kgf": 0.254545455,
        "lbf": 0.56,
        "newtons": 2.4962381862757494,
        "rpm": 1357.0
    },
    "1600": {
        "kgf": 0.309090909,
        "lbf": 0.68,
        "newtons": 3.0311463627448503,
        "rpm": 1480.0
    },
    "1610": {
        "kgf": 0.368181818,
        "lbf": 0.81,
        "newtons": 3.6106302254897,
        "rpm": 1611.0
    },
    "1620": {
        "kgf": 0.431818182,
        "lbf": 0.95,
        "newtons": 4.2346897745103,
        "rpm": 1730.0
    },
    "1630": {
        "kgf": 0.481818182,
        "lbf": 1.06,
        "newtons": 4.7250222745103,
        "rpm": 1851.0
    },
    "1640": {
        "kgf": 0.545454545,
        "lbf": 1.2,
        "newtons": 5.34908181372425,
        "rpm": 1971.0
    },
    "1650": {
        "kgf": 0.613636364,
        "lbf": 1.35,
        "newtons": 6.017717049020599,
        "rpm": 2091.0
    },
    "1660": {
        "kgf": 0.686363636,
        "lbf": 1.51,
        "newtons": 6.7309279509794,
        "rpm": 2196.0
    },
    "1670": {
        "kgf": 0.736363636,
        "lbf": 1.62,
        "newtons": 7.2212604509794,
        "rpm": 2291.0
    },
    "1680": {
        "kgf": 0.804545455,
        "lbf": 1.77,
        "newtons": 7.889895686275749,
        "rpm": 2391.0
    },
    "1690": {
        "kgf": 0.881818182,
        "lbf": 1.94,
        "newtons": 8.647682274510299,
        "rpm": 2501.0
    },
    "1700": {
        "kgf": 0.963636364,
        "lbf": 2.12,
        "newtons": 9.4500445490206,
        "rpm": 2618.0
    },
    "1710": {
        "kgf": 1.059090909,
        "lbf": 2.33,
        "newtons": 10.386133862744849,
        "rpm": 2715.0
    },
    "1720": {
        "kgf": 1.131818182,
        "lbf": 2.49,
        "newtons": 11.099344774510298,
        "rpm": 2816.0
    },
    "1730": {
        "kgf": 1.186363636,
        "lbf": 2.61,
        "newtons": 11.6342529509794,
        "rpm": 2901.0
    },
    "1740": {
        "kgf": 1.254545455,
        "lbf": 2.76,
        "newtons": 12.302888186275748,
        "rpm": 2991.0
    },
    "1750": {
        "kgf": 1.304545455,
        "lbf": 2.87,
        "newtons": 12.793220686275749,
        "rpm": 3081.0
    },
    "1760": {
        "kgf": 1.386363636,
        "lbf": 3.05,
        "newtons": 13.595582950979399,
        "rpm": 3179.0
    },
    "1770": {
        "kgf": 1.490909091,
        "lbf": 3.28,
        "newtons": 14.62082363725515,
        "rpm": 3261.0
    },
    "1780": {
        "kgf": 1.577272727,
        "lbf": 3.47,
        "newtons": 15.467761588234548,
        "rpm": 3357.0
    },
    "1790": {
        "kgf": 1.654545455,
        "lbf": 3.64,
        "newtons": 16.22554818627575,
        "rpm": 3419.0
    },
    "1800": {
        "kgf": 1.727272727,
        "lbf": 3.8,
        "newtons": 16.938759088234548,
        "rpm": 3495.0
    },
    "1810": {
        "kgf": 1.822727273,
        "lbf": 4.01,
        "newtons": 17.87484841176545,
        "rpm": 3561.0
    },
    "1820": {
        "kgf": 1.959090909,
        "lbf": 4.31,
        "newtons": 19.21211886274485,
        "rpm": 3621.0
    },
    "1830": {
        "kgf": 2.045454545,
        "lbf": 4.5,
        "newtons": 20.05905681372425,
        "rpm": 3719.0
    },
    "1840": {
        "kgf": 2.1,
        "lbf": 4.62,
        "newtons": 20.593965,
        "rpm": 3823.0
    },
    "1850": {
        "kgf": 2.181818182,
        "lbf": 4.8,
        "newtons": 21.396327274510302,
        "rpm": 3873.0
    },
    "1860": {
        "kgf": 2.263636364,
        "lbf": 4.98,
        "newtons": 22.198689549020596,
        "rpm": 3142.0
    },
    "1870": {
        "kgf": 2.322727273,
        "lbf": 5.11,
        "newtons": 22.778173411765447,
        "rpm": 2759.0
    },
    "1880": {
        "kgf": 2.418181818,
        "lbf": 5.32,
        "newtons": 23.714262725489696,
        "rpm": 2720.0
    },
    "1890": {
        "kgf": 2.486363636,
        "lbf": 5.47,
        "newtons": 24.382897950979398,
        "rpm": 2761.0
    },
    "1900": {
        "kgf": 2.518181818,
        "lbf": 5.54,
        "newtons": 24.6949277254897,
        "rpm": 2798.0
    }
}
