<?xml version="1.0"?>
<!-- Copyright (c) 2016 The UUV Simulator Authors.
     All rights reserved.

     Licensed under the Apache License, Version 2.0 (the "License");
     you may not use this file except in compliance with the License.
     You may obtain a copy of the License at

       http://www.apache.org/licenses/LICENSE-2.0

     Unless required by applicable law or agreed to in writing, software
     distributed under the License is distributed on an "AS IS" BASIS,
     WITHOUT WARRANTIES OR CONDITIONS OF ANY KIND, either express or implied.
     See the License for the specific language governing permissions and
     limitations under the License.
-->

<robot xmlns:xacro="http://www.ros.org/wiki/xacro">
  <!-- includes -->
  <xacro:include filename="$(find uuv_descriptions)/urdf/common.urdf.xacro"/>
  <xacro:include filename="$(find uuv_sensor_ros_plugins)/urdf/sensor_snippets.xacro"/>
  <xacro:include filename="$(find turquoise_description)/urdf/turquoise_snippets.xacro"/>
  <xacro:include filename="$(find uuv_gazebo_ros_plugins)/urdf/snippets.xacro"/>

  <!-- Parameters -->
  <!-- <xacro:property name="namespace" value="turquoise"/> -->
  <xacro:property name="visual_mesh_file" value="file://$(find turquoise_description)/meshes/vehicle.dae"/>
  <xacro:property name="prop_mesh_file" value="file://$(find turquoise_description)/meshes/propeller.dae"/>
  <xacro:property name="collision_mesh_file" value="file://$(find turquoise_description)/meshes/vehicle.stl"/>

  <!-- Mass, see p.28 in Berg2012, normally 17.217 -->
  <xacro:property name="mass" value="27.69117"/>
  <xacro:property name="x_size" value="0.872"/>
  <xacro:property name="y_size" value="0.451"/>
  <xacro:property name="z_size" value="0.605"/>
  <xacro:macro name="turquoise_base" params="namespace *gazebo inertial_reference_frame">

    <!-- base_link according to ROS conventions: x forward, z up -->
    <link name="${namespace}/base_link">
      <inertial>
        <mass value="${mass}"/>
        <origin xyz="0 0 0" rpy="0 0 0"/>
        <inertia ixx="1.196139294" ixy="0.0012058" ixz="0.112761663"
                 iyx="0.0012058" iyy="1.766870053" iyz="-0.003411909"
                 izx="0.112761663" izy="-0.003411909" izz="1.990866918" />
      </inertial>
      <visual>
        <origin xyz="0 0 0" rpy="0 0 0"/>
        <geometry>
          <mesh filename="${visual_mesh_file}" scale="1 1 1"/>
        </geometry>
      </visual>
      <!-- Collision -->
      <collision>
        <origin xyz="0 0 0" rpy="0 0 0"/>
        <geometry>
          <mesh filename="${collision_mesh_file}" scale="1 1 1" />
        </geometry>
      </collision>

    </link>

    <!-- Set up hydrodynamic plugin given as input parameter -->
    <xacro:insert_block name="gazebo"/>

    <!-- optional: plugin to test compare Gazebo's returned accelerations
    <gazebo>
      <plugin name="${namespace}_test_plugin" filename="libaccelerations_test_plugin.so">
        <link_name>${namespace}/base_link</link_name>
      </plugin>
    </gazebo> -->

    <xacro:include filename="$(find turquoise_description)/urdf/turquoise_actuators.xacro"/>
    <xacro:include filename="$(find turquoise_description)/urdf/turquoise_sensors.xacro"/>

  </xacro:macro>
</robot>
